/home/rob/projects/copl/jade-tutorial/src/main/java/dockingsystem/agents/WaterLock.java
/home/rob/projects/copl/jade-tutorial/src/main/java/dockingsystem/behaviours/BoatBehaviour.java
/home/rob/projects/copl/jade-tutorial/src/main/java/dockingsystem/behaviours/DoorBehaviour.java
/home/rob/projects/copl/jade-tutorial/src/main/java/dockingsystem/agents/Boat.java
/home/rob/projects/copl/jade-tutorial/src/main/java/dockingsystem/behaviours/LockBehaviour.java
/home/rob/projects/copl/jade-tutorial/src/main/java/dockingsystem/agents/Door.java
